YYYY_indexnumber,Année,Mois,Jour,Pays,Secteur,Type incident,Détails_incident,Type,Impact principal,Références
1980_001,1980,6,7,SE,Navire,Dysfonctionnement,Une erreur de conception entraîne le chavirage du navire.,Conception,Intégrité,https://en.wikipedia.org/wiki/MS_Zenobia
1998_001,1998,1,1,US,Défense,Déni de service,Déni de service sur systèmes IT.,Non précisé,Disponibilité,https://www.symantec.com/content/en/us/about/media/securityintelligence/SSR-Timeline.pdf
2001_001,2001,9,20,US,Port,Déni de service,Un port est victime d'une attaque par déni de service distribué.,Script Kiddie,Disponibilité,https://www.theregister.co.uk/2003/10/06/uk_teenager_accused_of_electronic/
2001_002,2001,9,20,US,Port,Déni de service,Un port est victime d'une attaque par déni de service distribué.,Script Kiddie,Disponibilité,https://www.theregister.co.uk/2003/10/06/uk_teenager_accused_of_electronic/
2002_001,2002,4,1,FR,Défense,Intrusion,Accès à distance sur systèmes IT maritimes.,Non précisé,Intégrité,https://www.symantec.com/content/en/us/about/media/securityintelligence/SSR-Timeline.pdf
2006_001,2006,11,6,US,Défense,Compromission site Internet,Cyberattaque sur un site Internet.,Non précisé,Disponibilité,http://www.nbcnews.com/id/16057306/ns/technology_and_science-security/t/hackers-attack-us-naval-war-college/#.VckLXflVhBc
2009_001,2009,1,12,FR,Défense,Virus/Rançongiciel,Dissémination d’un ver sur un réseau militaire.,Non précisé,Intégrité,http://secretdefense.blogs.liberation.fr/2009/02/05/les-armes-attaq/
2009_002,2009,3,1,US,Offshore,Intrusion,Un ancien employé lance une cyberattaque sur des plateformes.,Interne,Intégrité,
2010_001,2010,1,1,KR,Offshore,Virus/Rançongiciel,Une plateforme offshore est infectée par plusieurs codes malveillants. 19 jours d'interruption sur certains systèmes.,Non précisé,Disponibilité,https://oilprice.com/Latest-Energy-News/World-News/Offshore-Drill-Rigs-at-Threat-from-Computer-Viruses.html https://www.houstonchronicle.com/business/energy/article/Malware-on-the-offshore-rig-Danger-lurks-where-4470723.php
2010_002,2010,1,1,GR,Armateur,Intrusion,Un accès à distance obtenu sur le réseau Wi-Fi d'un armateur pendant deux ans permet à des attaquants de disposer d’informations de routage des navires.,Criminel,Confidentialité,https://safety4sea.com/cm-unravelling-the-myth-behind-cyber-security/
2011_001,2011,5,1,US,Défense,Intrusion,Accès à distance pour un attaquant sur des infrastructures IT navales.,Non précisé,Intégrité,https://thehackernews.com/2011/05/exclusive-report-is-department-of.html
2011_002,2011,8,1,IR,Armateur,Fuite de données,Un armateur est touché par une cyber-attaque entraînant la perte de données relatives aux marchandises et une perte du système de communication interne.,Non précisé,Intégrité,https://www.reuters.com/article/us-iran-sanctions-shipping/irans-top-cargo-shipping-line-says-sanctions-damage-mounting-idUSBRE89L10X20121022 https://maritimecyprus.files.wordpress.com/2015/06/maritime-cyber-risks.pdf
2011_003,2011,9,19,JP,Défense,Intrusion,Cyberattaque visant un sous-traitant industriel de défense.,Non précisé,Confidentialité,https://www.reuters.com/article/us-mitsubishiheavy-computer-idUSTRE78I0EL20110919 https://www.bbc.com/news/world-asia-pacific-14982906
2011_004,2011,12,13,NL,Port,Intrusion,Interruption d’un système IT douanier.,Non précisé,Disponibilité,
2011_005,2011,1,1,NL,Port,Attaque physique,Des trafiquants de drogue modifient un système CCS durant deux ans afin de permettre aux containers transportant leur marchandise (armes et drogue) d’éviter les douanes.,Criminel,Intégrité,https://www.bbc.com/news/world-europe-24539417 https://www.bloomberg.com/graphics/2015-mob-technology-consultants-help-drug-traffickers/
2012_001,2012,8,1,SA,Offshore,Virus/Rançongiciel,Dissémination d’un code malveillant sur le réseau d’une compagnie offshore.,Non précisé,Disponibilité,https://en.wikipedia.org/wiki/Shamoon
2012_002,2012,9,1,US,Industrie,Harponnage,Campagne de hameçonnage visant le secteur naval.,Non précisé,Confidentialité,
2012_003,2012,1,1,AU,Port,Intrusion,Systèmes douanier de gestion des marchandises compromis.,Criminel,Intégrité,https://commons.wmu.se/cgi/viewcontent.cgi?article=1662&context=all_dissertations https://maritimecyprus.files.wordpress.com/2015/06/maritime-cyber-risks.pdf
2012_004,2012,1,1,DK,Organisation,Virus/Rançongiciel,Une autorité maritime est infectée par un code malveillant transmis par courriel. Vols de documents et d'informations sur l'architecture réseau.,Espionnage,Disponibilité,https://shippingwatch-dk.translate.goog/Rederier/article7043149.ece?_x_tr_sl=da&_x_tr_tl=en&_x_tr_hl=fr http://maritimedenmark.dk/?Id=17968
2012_005,2012,10,10,IR,Offshore,Intrusion,Les systèmes de télécommunication de plusieurs plateformes offshore font l'objet de cyber attaques.,Non précisé,Intégrité,https://www.maritime-executive.com/article/iran-s-offshore-platforms-become-target-of-recent-cyber-attacks
2013_001,2013,1,1,US,Offshore,Virus/Rançongiciel,Virus sur des ordinateurs d’une plateforme d'une compagnie offshore.,Non précisé,Disponibilité,http://aapa.files.cms-plus.com/SeminarPresentations/2016Seminars/2016SecurityIT/K.%20Belmont%20-%20AAPA%20Maritime%20Cybersecurity%20FINAL.pdf
2013_002,2013,1,1,US,Port,Leurrage/brouillage GPS/AIS,Perte du signal GPS qui entraîne l’arrêt de 4 grues pendant 7 heures.,Non précisé,Disponibilité,https://info.publicintelligence.net/DHS-Seaportcyberattacks.pdf
2013_003,2013,1,1,US,Défense,Erreur humaine,Une mauvaise utilisation de cartes ENC entraîne l’échouement d’un navire.,Non précisé,Disponibilité,https://www.maritimecybertraining.online/page/library
2013_004,2013,3,1,US,Industrie,Virus/Rançongiciel,"Cyberattaque visant l’industrie maritime (télécommunications) aux US, DE, AU.",Non précisé,Confidentialité,https://www.crowdstrike.com/blog/whois-anchor-panda/
2013_005,2013,5,27,US,Défense,Intrusion,Plusieurs projets dans le domaine du naval de défense ont été signalés comme ayant fait l'objet d'attaques à des fins d'espionnage.,Espionnage,Confidentialité,https://www.washingtonpost.com/world/national-security/confidential-report-lists-us-weapons-system-designs-compromised-by-chinese-cyberspies/2013/05/27/a42c3e1c-c2dd-11e2-8c3b-0b5e9247e8ca_story.html
2013_006,2013,9,1,US,Défense,Intrusion,Cyberattaque sur un intranet de la défense.,Espionnage,Confidentialité,https://arstechnica.com/information-technology/2014/02/iranians-hacked-navy-network-for-4-months-not-a-surprise/ https://paper.seebug.org/papers/APT/APT_CyberCriminel_Campagin/2014/2014.12.02.Operation_Cleaver/Cylance_Operation_Cleaver_Report.pdf http://online.wsj.com/news/articles/SB10001424052702304899704579389402826681452
2013_007,2013,9,1,US,Chantier naval,Virus/Rançongiciel,"Campagne d’attaque visant des sous-traitants US, JP et KR et des chantiers navals.",Espionnage,Confidentialité,https://www.securelist.com/en/blog/208214064/The_Icefog_APT_A_Tale_of_Cloak_and_Three_Daggers https://www.darkreading.com/attacks-and-breaches/java-icefog-malware-variant-infects-us-businesses/d/d-id/1113451 https://securelist.com/the-icefog-apt-hits-us-targets-with-java-backdoor/58209/ http://www.kaspersky.com/about/news/virus/2013/Kaspersky_Lab_exposes_Icefog_a_new_cyber-espionage_campaign_focusing_on_supply_chain_attacks
2014_001,2014,1,1,US,Logistique,Arnaque,Une compagnie africaine de soutage est touchée par une arnaque de type FOVI.,Cybercriminalité,Intégrité,https://shipandbunker.com/news/world/670152-wfs-in-court-over-18m-bunker-scam-claim
2014_002,2014,7,1,US,Logistique,Intrusion,"Un lecteur de code barres est compromis, permettant une attaque sur le réseau interne.",Cybercriminalité,Intégrité,http://www.trapx.com/wp-content/uploads/2014/07/TrapX_ZOMBIE_Report_Final.pdf
2014_003,2014,XX,XX,XX,Navire,Leurrage/brouillage GPS/AIS,Un rapport souligne que 1% de tous les navires fournissent de fausses informations dans leurs transmissions AIS et que 25% les coupent.,Contrebande,Intégrité,https://paperzz.com/doc/7737059/an-analysis-of-the-magnitude-and-implications-of-growing-...
2015_001,2015,10,1,US,Enseignement supérieur et recherche,Compromission site Internet,Défacement d’un site Internet.,Cybercriminalité,Intégrité,https://www.boston25news.com/news/mass-maritime-academy-website-hacked-twice-linking-to-islamic-extremist-site/142411996
2015_002,2015,12,1,CA,Armateur,Arnaque,Arnaque sur la livraison d’un nouveau navire.,Cybercriminalité,Intégrité,https://maritime-executive.com/blog/maritime-cyber-attacks-changing-tides
2015_003,2015,1,1,US,Défense,Intrusion,Des sous-traitants du secteur de la défense sont touchés par 50 intrusions.,Non précisé,Confidentialité,http://aapa.files.cms-plus.com/SeminarPresentations/2016Seminars/2016SecurityIT/K.%20Belmont%20-%20AAPA%20Maritime%20Cybersecurity%20FINAL.pdf
2015_004,2015,1,1,NO,Offshore,Intrusion,Plus de 50 intrusions dans le secteur offshore du gaz et du pétrole.,Non précisé,Intégrité,https://www.dnvgl.com/news/cma-shipping-2015-dnv-gl-addresses-cybersecurity-risks-21348
2015_005,2015,1,1,US,Offshore,Virus/Rançongiciel,Une unité mobile de forage offshore est touchée par un virus.,Non précisé,Disponibilité,http://www.drillingcontractor.org/drilling-cybersecurity-36727
2015_006,2015,1,1,CY,Armateur,Harponnage,Hameçonnage d’un armateur. Arnaque type FOVI.,Cybercriminalité,Intégrité,https://maritime-executive.com/blog/maritime-cyber-attacks-changing-tides
2015_007,2015,10,1,FR,EMR,Virus/Rançongiciel,Une entreprise du secteur EMR est touchée par un rançongiciel.,Cybercriminalité,Disponibilité,https://www.usinenouvelle.com/article/l-hydrolienne-de-sabella-attaquee-par-des-pirates.N384317
2015_008,2015,12,1,US,Armateur,Intrusion,Un support contenant des données à caractère personnel de navigants est perdue.,Non précisé,Confidentialité,https://app.hacknotice.com/#/hack/5a6f60cbba0c8e312e7101c3
2016_001,2016,1,1,US,Logistique,Harponnage,Les comptes de courriels d’un agent maritime font l’objet d’une attaque de hameçonnage. Arnaque FOVI. 18 M$ d'impact,Cybercriminalité,Intégrité,http://aapa.files.cms-plus.com/SeminarPresentations/2016Seminars/2016SecurityIT/K.%20Belmont%20-%20AAPA%20Maritime%20Cybersecurity%20FINAL.pdf
2016_002,2016,1,1,US,Logistique,Harponnage,Des comptes de courriel d’un affrêteur sont touchés par une attaque utilisant le hameçonnage. Impact financier.,Cybercriminalité,Intégrité,http://aapa.files.cms-plus.com/SeminarPresentations/2016Seminars/2016SecurityIT/K.%20Belmont%20-%20AAPA%20Maritime%20Cybersecurity%20FINAL.pdf
2016_003,2016,1,1,US,Armateur,Intrusion,Une compagnie de transport est attaquée par des pirates localisant les biens de valeur.,Cybercriminalité,Intégrité,http://aapa.files.cms-plus.com/SeminarPresentations/2016Seminars/2016SecurityIT/K.%20Belmont%20-%20AAPA%20Maritime%20Cybersecurity%20FINAL.pdf
2016_004,2016,1,1,US,Port,Déni de service,Un port est touché par une attaque de type déni de service.,Non précisé,Disponibilité,http://aapa.files.cms-plus.com/SeminarPresentations/2016Seminars/2016SecurityIT/K.%20Belmont%20-%20AAPA%20Maritime%20Cybersecurity%20FINAL.pdf
2016_005,2016,3,2,GB,Organisation,Intrusion,Une organisation de lutte contre la piraterie pourrait avoir été touchée par une cyberattaque. Ce cas fait l’objet d’avis contradictoires.,Non précisé,Intégrité,https://maritime-executive.com/article/bimco-warns-of-security-breach-in-anti-piracy-program https://www.databreaches.net/mtisc-gog-investigation-finds-no-evidence-of-breach/
2016_006,2016,4,1,KR,Chantier naval,Intrusion,Un chantier naval est touché par une cyberattaque. Fuite de données.,Espionnage,Confidentialité,https://www.reuters.com/article/us-northkorea-missiles-cybercrime/north-korea-hacked-daewoo-shipbuilding-took-warship-blueprints-south-korea-lawmaker-idUSKBN1D00EX
2016_007,2016,4,1,KR,Navire,Leurrage/brouillage GPS/AIS,280 navires touchés par une perte de signal GPS rentrent à quai.,Non précisé,Disponibilité,https://www.maritime-executive.com/features/cyber-attack-whats-at-stake
2016_008,2016,8,11,DE,Chantier naval,Intrusion,Un chantier naval est victime d'une cyberattaque. Fuite de données.,Espionnage,Confidentialité,"https://www.ynetnews.com/articles/0,7340,L-4890294,00.html"
2016_009,2016,8,24,FR,Chantier naval,Fuite de données,Fuite de données concernant des contrats militaires.,Non précisé,Confidentialité,https://www.reuters.com/article/idUSKCN10Z04G
2017_001,2017,6,22,RU,Navire,Leurrage/brouillage GPS/AIS,20 navires sont impactés par un leurrage GNSS près de Novorossiysk - leur position est indiquée à plus de 30 km de leur position réelle.,Politique,Intégrité,https://www.maritime.dot.gov/content/2017-005a-black-sea-gps-interference https://www.wired.co.uk/article/black-sea-ship-hacking-russia
2017_002,2017,6,27,IN,Port,Virus/Rançongiciel,Un port est touché par une attaque par rançongiciel qui entraîne une interruption de ses activités.,Cybercriminalité,Disponibilité,https://thewire.in/economy/jnpt-indias-largest-container-port-hit-by-global-cyber-attack https://www.thehindu.com/news/national/operations-at-jawaharlal-nehru-port-in-mumbai-hit-by-ransomware/article19159064.ece https://www.hindustantimes.com/india-news/cyber-attack-malware-hits-jawaharlal-nehru-port-operations-in-mumbai/story-xGtbHwvZI4bX5RgJCUBN3L.html
2017_003,2017,6,30,DK,Armateur,Virus/Rançongiciel,"Un armateur et les terminaux portuaires qu’il utilise sont touchés par NotPetya. Perte estimée à 300M US$. Plus de 4 000 servers, 45 000 ordinateurs et 2 500 applications doivent être réinstallés.",Politique,Disponibilité,https://www.theregister.co.uk/2018/01/25/after_notpetya_maersk_replaced_everything/ https://redmondmag.com/blogs/scott-bekker/2018/08/domain-controller-nightmare.aspx https://gvnshtn.com/maersk-me-notpetya/
2017_004,2017,6,30,NL,Port,Virus/Rançongiciel,Ports touchés par NotPetya.,Politique,Disponibilité,https://www.portofrotterdam.com/en/news-and-press-releases/cyber-attack-strikes-one-company-in-the-port-area https://www.portofrotterdam.com/en/news-and-press-releases/port-cyber-hotline-operational
2017_005,2017,7,13,DE,Navire,Dysfonctionnement,Perte de gouvernail sur un navire suite à un problème logiciel.,Non précisé,Disponibilité,https://insurancemarinenews.com/insurance-marine-news/marine-accident-round/
2017_006,2017,7,1,NO,Offshore,Intrusion,Une compagnie offshore est touchée par une cyberattaque (accès à distance).,Non précisé,Intégrité,"http://www.marinemec.com/news/view,tanker-group-says-it-faced-cyber-attack-in-july_49564.htm"
2017_007,2017,7,1,SG,Armateur,Intrusion,Cyberattaque sur le système IT d’un armateur.,Cybercriminalité,Intégrité,http://lss-sapu.com/2017/10/16/computer-hackers-targeted-bw-group/ https://www.spglobal.com/platts/en/market-insights/latest-news/shipping/101317-shipping-bw-groups-computer-systems-hacked-steps-up-cyber-security
2017_008,2017,10,16,US,Défense,Harponnage,Des acteurs du secteur de la défense sont touchés par des attaques de hameçonnage.,Espionnage,Confidentialité,https://www.proofpoint.com/us/threat-insight/post/leviathan-espionage-actor-spearphishes-maritime-and-defense-targets
2017_009,2017,11,7,GB,Industrie,Intrusion,"Accès distants sur les serveurs d’une compagnie maritime, fuite de données.",Non précisé,Confidentialité,https://www.clarksons.com/media/1129201/notice_of_cyber_security_incident.pdf https://www.clarksons.com/media/1142671/update_on_2017_data_breach____regulatory_notice.pdf
2017_010,2017,1,1,DE,Navire,Intrusion,Accès distant sur un navire. Ce cas fait l’objet d’avis contradictoires.,Non précisé,Intégrité,https://www.linkedin.com/pulse/hackers-took-full-control-container-ships-navigation-systems-goward https://splash247.com/fear-fake-news-cyber-hype/
2017_011,2017,1,1,KR,Armateur,Harponnage,Multiples attaques de type FOVI visant notamment la Corée du sud et le Japon.,Cybercriminalité,Intégrité,https://www.secureworks.com/research/gold-galleon-how-a-nigerian-cyber-crew-plunders-the-shipping-industry
2018_001,2018,7,24,US,Port,Virus/Rançongiciel,Attaque par rançongiciel sur un port suite à l'infection d'un armateur.,Cybercriminalité,Disponibilité,https://www.offshore-energy.biz/cosco-shipping-lines-falls-victim-to-cyber-attack/ https://safety4sea.com/cyber-attack-hits-coscos-operations-in-us/
2018_002,2018,6,8,US,Défense,Intrusion,Espionnage sur un sous-traitant travaillant sur des projets liés à la défense.,Espionnage,Confidentialité,https://www.washingtonpost.com/world/national-security/china-hacked-a-navy-contractor-and-secured-a-trove-of-highly-sensitive-data-on-submarine-warfare/2018/06/08/6cc396fa-68e6-11e8-bea7-c8eb28bc52b1_story.html https://www.nytimes.com/2018/06/08/us/politics/china-hack-navy-contractor-.html
2018_003,2018,9,20,ES,Port,Virus/Rançongiciel,Un port est touché par une cyberattaque.,Cybercriminalité,Disponibilité,https://www.ara.cat/economia/port-barcelona-pateix-ciberatac_1_2724522.html https://securityaffairs.co/wordpress/76483/hacking/port-of-barcelona-hack.html
2018_004,2018,9,25,US,Port,Virus/Rançongiciel,Port touché par une cyberattaque.,Cybercriminalité,Disponibilité,https://www.portofsandiego.org/press-releases/general-press-releases/port-san-diego-issues-statement-cybersecurity-incident https://www.portofsandiego.org/press-releases/general-press-releases/port-san-diego-927-update-cybersecurity-incident https://www.portofsandiego.org/press-releases/general-press-releases/port-san-diego-releases-additional-information-cybersecurity https://www.sandiegoreader.com/news/2019/apr/10/city-lights-happened-ransomware-port-san-diego/ https://www.justice.gov/opa/pr/two-iranian-men-indicted-deploying-ransomware-extort-hospitals-municipalities-and-public
2018_005,2018,10,10,CA,Port,Harponnage,Port touché par une tentative d’attaque sur des courriels.,Cybercriminalité,Intégrité,
2018_006,2018,11,2,AU,Chantier naval,Intrusion,Intrusion dans une entreprise de construction de navires militaires. Fuite de données.,Cybercriminalité,Confidentialité,https://safety4sea.com/australian-defense-shipbuilder-austal-hit-by-cyber-attack/ https://news.Dfense.gov.au/media/media-releases/austal-cyber-security-incident https://www.theguardian.com/technology/2018/nov/02/defence-shipbuilder-austal-hit-with-data-breach-and-extortion-attempt
2018_007,2018,12,10,IT,Offshore,Intrusion,400 serveurs d'une compagnie pétrolière sont touchés par une attaque touchant l'Arabie Saoudite et les Emirats Arabes Unis.,Cybercriminalité,Disponibilité,https://www.saipem.com/en/media/press-releases/2018-12-17/saipem-final-update-cyber-attack-suffered
2018_008,2018,8,1,US,Défense,Fuite de données,Un couple d’anciens membres de l’US Navy se sont rendus coupables de vol et de publication de données personnelles appartenant à près de 9000 membres de l’US Navy.,Cybercriminalité,Confidentialité,https://vpnoverview.com/news/ex-navy-couple-sold-data-of-over-9000-people-on-dark-web/
2019_001,2019,2,1,US,Navire,Virus/Rançongiciel,Les garde-côtes interviennent à bord d’un navire victime d’une cyberattaque.,Non précisé,Intégrité,https://cybermaretique.fr/les-gardes-cotes-americains-interviennent-a-bord-dun-navire-objet-dun-incident-cyber/?preview=true https://www.dco.uscg.mil/Portals/9/DCO%20Documents/5p/CG-5PC/INV/Alerts/0619.pdf
2019_002,2019,5,1,KW,Logistique,Intrusion,Une compagnie de transport maritime est touchée par une cyberattaque (porte dérobée).,Non précisé,Intégrité,http://www.marsecreview.com/2019/10/two-major-cyberattacks-have-targetted-kuwait-transportation-and-shipping-Industrie-this-year/ https://unit42.paloaltonetworks.com/xhunt-campaign-attacks-on-kuwait-shipping-and-transportation-organizations/
2019_003,2019,5,1,US,Navire,Harponnage,Deux navires de croisière sont touchés par du harponnage. Fuite de données personnelles.,Cybercriminalité,Confidentialité,https://digit.fyi/carnival-cruise-lines-announces-cyber-attack-on-its-systems/
2019_004,2019,7,1,IL,Port,Leurrage/brouillage GPS/AIS,Des grues portuaires sont touchées par du leurrage/brouillage GPS.,Politique,Disponibilité,https://dredgingandports.com/news/2019/2298/
2019_005,2019,7,1,US,Port,Virus/Rançongiciel,Un acteur portuaire est touché par un rançongiciel.,Cybercriminalité,Disponibilité,https://www.freightwaves.com/news/u-s-maritime-agency-found-vulnerable-to-cyber-hacking https://www.oig.dot.gov/sites/default/files/MARAD%20IT%20Infrastructure%20Final%20Report-Redacted%5E07-24-19_0.pdf
2019_006,2019,7,1,CN,Port,Leurrage/brouillage GPS/AIS,Crop circles GPS.,Non précisé,Disponibilité,https://www.technologyreview.com/2019/11/15/131940/ghost-ships-crop-circles-and-soft-gold-a-gps-mystery-in-shanghai/
2019_007,2019,11,1,GB,Logistique,Intrusion,Une compagnie maritime logistique est touchée par une cyberattaque suite à une intrusion.,Cybercriminalité,Disponibilité,https://www.maritime-executive.com/article/james-fisher-and-sons-hit-by-cyberattack
2019_008,2019,11,10,US,Offshore,Virus/Rançongiciel,Une compagnie offshore est touchée par une attaque à rançongiciel.,Cybercriminalité,Disponibilité,https://oilprice.com/Latest-Energy-News/World-News/Pemex-Still-Suffers-cyberattack-Fallout.html https://www.bnnbloomberg.ca/pemex-communications-still-spotty-after-crippling-cyberattack-1.1353325 https://www.rigzone.com/news/wire/pemex_faces_payment_problems_after_cyber_attack-12-nov-2019-160312-article/ https://www.maritime-executive.com/article/pemex-refuses-to-pay-hackers
2019_009,2019,12,1,CN,Navire,Leurrage/brouillage GPS/AIS,Compte-rendu de leurrage GPS.,Non précisé,Disponibilité,https://www.gpsworld.com/chinese-gps-spoofing-circles-could-hide-iran-oil-shipments/
2019_010,2019,12,1,US,Port,Virus/Rançongiciel,"Un acteur du MTS est touché par un rançongiciel (systèmes industriels, de vidéoprotection et de contrôle d’accès touchés).",Cybercriminalité,Disponibilité,https://cybermaretique.fr/le-rancongiciel-ryuk-entraine-plus-de-30-heures-dinterruption-dactivite-pour-un-acteur-du-monde-maritime/ https://media.cert.europa.eu/static/MEMO/2020/TLP-WHITE-CERT-EU-THREAT-MEMO-200121.pdf https://www.dco.uscg.mil/Portals/9/DCO%20Documents/5p/MSIB/2019/MSIB_10_19.pdf
2019_011,2019,12,1,IT,Navire,Leurrage/brouillage GPS/AIS,Leurrage AIS au large de l’Ile d’Elbe.,Non précisé,Disponibilité,http://www.emsa.europa.eu/ssn-main/documents/workshop-presentations-a-reports/download/5945/3746/41.html https://www.mdpi.com/2077-1312/8/10/776/pdf
2019_012,2019,12,30,GB,Industrie,Virus/Rançongiciel,Une compagnie de consultants offshore est touchée par une attaque à rançongiciel.,Cybercriminalité,Disponibilité,https://splash247.com/london-offshore-consultants-suffers-ransomware-attack/
2019_013,2019,XX,XX,FI,Navire,Virus/Rançongiciel,Plusieurs serveurs à bord d'un pétrolier ainsi que leurs sauvegardes sont chiffrés par un rançongiciel.,Cybercriminalité,Disponibilité,https://alsum.co/ataques-ciberneticos-a-la-industria-maritima-en-los-ultimos-10-anos/
2019_014,2019,XX,XX,NO,Navire,Leurrage/brouillage GPS/AIS,Plusieurs cas de leurrage GNSS sur les années 2018 et 2019.,Politique,Disponibilité,https://nsm.no/getfile.php/131421-1587034764/Hermans%20undermappe%20med%20bilder/NSM_Risiko_2020_web_0104.pdf
2019_015,2019,XX,XX,XX,Navire,Virus/Rançongiciel,Deux navires du même armateur sont infectés par le rançongiciel Hermes.,Cybercriminalité,Disponibilité,"https://www.transnav.eu/files/A%20Retrospective%20Analysis%20of%20Maritime%20Cyber%20Security%20Incidents,1144.pdf"
2020_001,2020,1,5,US,Navire,Fuite de données,"Lors dun reportage TV à bord d’un navire de croisière, un mot de passe est lisible sur un écran de la passerelle.",Non précisé,Confidentialité,
2020_002,2020,1,10,FR,Logistique,Virus/Rançongiciel,Un acteur de la logistique multimodale est touché par une attaque à rançongiciels.,Cybercriminalité,Disponibilité,https://twitter.com/fbgwls245/status/1215575390091014149
2020_003,2020,2,23,US,Logistique,Fuite de données,Acteur logistique touché par une cyberattaque. Fuite de données.,Cybercriminalité,Confidentialité,https://www.tql.com/carrierhotline
2020_004,2020,3,15,FR,Port,Virus/Rançongiciel,Cyberattaque sur un smart port.,Cybercriminalité,Disponibilité,https://www.lemondeinformatique.fr/actualites/lire-aix-marseille-provence-touchee-par-une-cyberattaque-78444.html https://www.lemondeinformatique.fr/actualites/lire-l-anssi-decrit-la-cyberattaque-qui-a-frappe-aix-marseille-provence-78492.html https://www.lexpress.fr/region/provence-alpes-cote-d-azur/marseille-et-sa-metropole-affectees-par-une-cyberattaque-inedite-depuis-un-mois_2123460.html https://www.ouest-france.fr/high-tech/cyberattaque-contre-marseille-l-agence-de-securite-informatique-alerte-les-collectivites-locales-6784949 https://www.nolimitsecu.fr/ransomware-retour-d-experience-sur-une-compromission/ https://www.youtube.com/watch?v=-7Rs41FST-Q
2020_005,2020,4,7,DK,Industrie,Virus/Rançongiciel,Un fabricant de systèmes de pompage est touché par une attaque à rançongiciels.,Cybercriminalité,Disponibilité,https://ics-cert.kaspersky.com/news/2020/04/17/new-ransomware/
2020_006,2020,4,10,CH,Armateur,Virus/Rançongiciel,Une compagnie de croisière est touchée par une cyberattaque - ses systèmes sont impactés pendant cinq jours.,Non précisé,Disponibilité,https://cybermaretique.fr/larmateur-msc-victime-dune-probable-cyberattaque/ https://cybermaretique.fr/la-cyberattaque-sur-msc-confirmee-par-larmateur/ https://www.securityweek.com/shipping-giant-msc-confirms-outage-caused-malware-attack
2020_007,2020,4,21,CL,Navire,Phishing,Une autorité maritime informe de plusieurs cas d'usurpation d'identité suite à des courriels de phishing demandant la transmission de documents de navires.,Non précisé,Confidentialité,https://apam-peru.com/web/alertamos-a-comunidad-portuaria-uso-fraudulento-de-identidad-de-autoridades/
2020_008,2020,4,23,SE,Equipementier,Virus/Rançongiciel,Un équipementier maritime est victime d'une attaque par rançongiciel.,Cybercriminalité,Disponibilité,
2020_009,2020,4,27,US,Offshore,Virus/Rançongiciel,Une compagnie offshore est visée par une attaque par rançongiciel. Fuite de données.,Cybercriminalité,Confidentialité,https://blog.cyble.com/2020/04/28/nefilim-ransomware-operators-strike-wt-offshore-a-leading-independent-oil-and-natural-gas-producer/ https://blog.cyble.com/2020/05/07/netfilm-ransomware-operators-publishes-the-data-leak-part-2-of-wt-offshore-a-leading-independent-oil-and-natural-gas-producer/
2020_010,2020,5,5,AU,Logistique,Fuite de données,Un acteur logistique multimodal est touché par une fuite de données.,Cybercriminalité,Confidentialité,https://www.tollgroup.com/toll-it-systems-updates https://cisomag.eccouncil.org/mailto-ransomware-hits-toll-group-deliveries-across-australia-affected/
2020_011,2020,5,1,US,Navire,Leurrage/brouillage GPS/AIS,Crop circles AIS au large de la Californie.,Non précisé,Disponibilité,https://www.thelog.com/snw/ships-ais-broadcasts-draw-gps-crop-circles-thousands-of-miles-away-from-actual-locations/
2020_012,2020,5,9,IR,Port,Intrusion,Ports touchés par une cyberattaque provenant d'une source réputée étatique - opérations du port impactées.,Politique,Disponibilité,https://www.zdnet.com/article/iran-reports-failed-cyber-attack-on-strait-of-hormuz-port/ https://www.nytimes.com/2020/05/19/world/middleeast/israel-iran-cyberattacks.html https://www.washingtonpost.com/national-security/officials-israel-linked-to-a-disruptive-cyberattack-on-iranian-port-facility/2020/05/18/9d1da866-9942-11ea-89fd-28fb313d1886_story.html
2020_013,2020,5,18,HK,Armateur,Virus/Rançongiciel,Un armateur est touché par une attaque par rançongiciel qui aurait touché 20% de ses postes de travail et 10% de ses serveurs.,Cybercriminalité,Disponibilité,https://splash247.com/anglo-eastern-suffers-ransomware-attack/
2020_014,2020,6,9,NO,Chantier naval,Virus/Rançongiciel,Un chantier naval est touché par une attaque à rançongiciels qui impacte ses capacités opérationnelles. Chômage partiel.,Cybercriminalité,Disponibilité,https://www.maritime-executive.com/article/vard-hit-by-cyberattack https://www.databreaches.net/more-drama-in-the-world-of-ransomware-was-vard-group-victimized-twice/ https://www.insurancejournal.com/news/international/2020/06/09/571495.htm
2020_015,2020,6,19,FR,Chantier naval,Virus/Rançongiciel,Un chantier naval est touché par une cyberattaque.,Cybercriminalité,Disponibilité,https://www.capital.fr/entreprises-marches/fountaine-pajot-la-cyberattaque-est-maitrisee-1374296
2020_016,2020,6,20,US,Offshore,Virus/Rançongiciel,"Une entreprise travaillant dans le secteur du dragage, de la construction de quais et de ponts, le grutage et l'offshore est touchée par une attaque à rançongiciel.",Cybercriminalité,Confidentialité,https://www.technadu.com/big-steel-sheet-manufacturer-struck-maze-ransomware/177307/
2020_017,2020,7,23,US,Equipementier,Virus/Rançongiciel,Un équipementier GPS travaillant notamment dans le monde maritime est touché par une attaque par rançongiciels.,Cybercriminalité,Disponibilité,https://www.navionics.com/caf/blog/post/outage
2020_018,2020,7,25,MU,Navire,Erreur humaine,Le mauvais réglage d'un ECDIS concourt à l'échouement d'un navire.,Interne,Integrité,https://amp.gob.pa/notas-de-prensa/delegacion-panamena-de-expertos-en-accidentes-maritimos-asiste-en-investigaciones-sobre-el-accidente-de-la-embarcacion-wakashio-en-isla-mauricio/
2020_019,2020,8,1,US,Port,Harponnage,Hameçonnage sur un acteur du MTS.,Cybercriminalité,Intégrité,https://cybermaretique.fr/les-incidents-connus/
2020_020,2020,8,5,NO,Offshore,Virus/Rançongiciel,Une compagnie offshore est victime d'une attaque par rançongiciel.,Cybercriminalité,Intégrité,https://cyware.com/news/maze-rains-havoc-with-its-non-stop-attacks-rocks-thailand-lately-19f92e36
2020_021,2020,8,15,US,Armateur,Fuite de données,Une compagnie de croisière est touchée par une attaque à rançongiciels. Importante fuite de données.,Cybercriminalité,Confidentialité,https://www.carnivalcorp.com/news-releases/news-release-details/carnival-corporation-plc-identifies-ransomware-incident https://www.infosecurity-magazine.com/news/carnival-confirms-passenger-data/ https://www.prnewswire.com/news-releases/carnival-corporation--plc-update-on-cyber-event-301151284.html
2020_022,2020,8,15,NO,Société de classification,Intrusion,Possible cas d’espionnage.,Espionnage,Confidentialité,https://www.upstreamonline.com/politics/identity-of-dnv-gl-spy-revealed-as-probe-continues/2-1-860655
2020_023,2020,9,11,DK,Logistique,Virus/Rançongiciel,Un acteur de transport multimodal est touché par une attaque à rançongiciels.,Cybercriminalité,Intégrité,https://shippingwatch.com/logistics/article12414470.ece
2020_024,2020,9,20,FR,Logistique,Virus/Rançongiciel,Un acteur de transport multimodal est touché par une attaque à rançongiciels.,Cybercriminalité,Disponibilité,https://www.gefco.net/fr/newsroom/detail/news/message-de-luc-nadal-gefco-cyber-attack/
2020_025,2020,9,25,GR,Armateur,Virus/Rançongiciel,Un armateur de ferries est touché par une attaque à rançongiciels.,Cybercriminalité,Intégrité,"https://www.transnav.eu/Article_A_Retrospective_Analysis_of_Maritime_,59,1144.html"
2020_026,2020,9,25,MT,Organisation,Intrusion,Une organisation de transport notamment maritime est victime d'une intrusion et doit arrêter ses systèmes durant cinq jours.,Cybercriminalité,Disponibilité,https://www.transport.gov.mt/-ENG-TMNoticeDataBreachIDPC.pdf-f5565
2020_027,2020,9,28,FR,Armateur,Virus/Rançongiciel,Un armateur est touché par une attaque à rançongiciels entraînant une fuite de données.,Cybercriminalité,Confidentialité,https://lloydslist.maritimeintelligence.informa.com/LL1134044/CMA%20CGM%20confirms%20ransomware%20attack https://www.lemagit.fr/actualites/252489714/Ransomware-CMA-CGM-victime-de-la-piraterie-de-Ragnar-Locker https://www.boursorama.com/bourse/actualites/cyberattaque-la-compagnie-maritime-cma-cgm-evalue-un-possible-vol-de-donnees-eca2e30d4ed228311ed8a34e061f1756 https://www.cmacgm-group.com/fr/news-media/global-it-update-09-29-2020 https://swzmaritime.nl/news/2020/10/01/cma-cgm-suspects-data-breach-in-recent-cyber-attack/
2020_028,2020,9,30,GB,Organisation,Intrusion,Cyberattaque sur une organisation maritime internationale.,Non précisé,Disponibilité,https://safetyatsea.net/news/2020/the-imo-hit-by-sophisticated-cyber-attack/ https://gcaptain.com/international-maritime-Organisation-hit-by-cyber-attack/ https://latesthackingnews.com/2020/10/08/un-maritime-agency-suffered-cyber-attack-disrupting-its-web-based-services/ https://www.reuters.com/article/idUSL8N2GS38E
2020_029,2020,10,1,GB,Armateur,Virus/Rançongiciel,Une compagnie de ferries est touchée par une attaque à rançongiciels qui entraîne des impacts sur ses systèmes de réservation.,Cybercriminalité,Disponibilité,https://www.bbc.com/news/uk-england-hampshire-54368110
2020_030,2020,10,15,US,Logistique,Virus/Rançongiciel,Un transporteur multimodal est visé par une attaque à rançongiciels. Vol de données.,Cybercriminalité,Intégrité,https://www.itwire.com/security/big-us-transportation-service-firm-hit-by-windows-revil-ransomware.html
2020_031,2020,10,20,CA,Logistique,Virus/Rançongiciel,Un transporteur multimodal est visé par une attaque à rançongiciels.,Cybercriminalité,Intégrité,
2020_032,2020,11,16,FR,Logistique,Virus/Rançongiciel,Un transporteur logistique est touché par une attaque à rançongiciel.,Cybercriminalité,Intégrité,
2020_033,2020,11,17,US,Fluvial,Virus/Rançongiciel,Port fluvial touché par une attaque à rançongiciel. Les attaquants ont exigé une rançon de 200 000 US$. Les systèmes ont été restaurés sur plusieurs jours à l'aide de sauvegardes hors ligne.,Cybercriminalité,Disponibilité,https://safety4sea.com/washingtons-port-of-kennewick-confirms-cyber-attack/ https://www.professionalmariner.com/washingtons-port-of-kennewick-hit-by-cyberattack/ https://www.tri-cityherald.com/news/local/crime/article247251569.html https://www.portofkennewick.org/port-experiences-cybersecurity-incident/
2020_034,2020,12,14,NO,Armateur,Virus/Rançongiciel,Un croisiériste est touché par une attaque à rançongiciel entraînant une interruption de services sur plusieurs jours et une fuite de données à caractère personnel.,Cybercriminalité,Disponibilité,https://hotforsecurity.bitdefender.com/blog/cruise-line-operator-hurtigruten-crippled-in-ransomware-attack-24869.html https://www.reuters.com/article/hurtigruten-cyberattack/norwegian-cruise-liner-hurtigruten-sustains-cyberattack-idUKKBN28O1E5 https://www.securityweek.com/norwegian-cruise-company-hurtigruten-hit-cyberattack
2020_035,2020,12,28,DE,Armateur,Virus/Rançongiciel,Un croisiériste est touché par une cyberattaque qui pourrait également avoir impacté ses navires et ceux du groupe. Plusieurs croisières sont annulées.,Cybercriminalité,Intégrité,https://www.cruiselawnews.com/2020/12/articles/cyber-attacks/aida-cruise-ships-under-cyber-attack-are-costa-ships-also-affected/ https://www.bild.de/sparfochs/2020/sparfochs/kreuzfahrten-abgesagt-it-systeme-gestoert-aida-legt-schiffe-an-die-kette-74623228.bild.html
2020_036,2020,XX,XX,GB,Navire,Virus/Rançongiciel,Les serveurs et postes clients d'un navires sont touchés par un rançongiciel. Perte de données.,Cybercriminalité,Disponibilité,"https://www.transnav.eu/Article_A_Retrospective_Analysis_of_Maritime_,59,1144.html"
2020_037,2020,XX,XX,US,Navire,Virus/Rançongiciel,Trois navires sont infectés par un rançongiciel,Cybercriminalité,Disponibilité,"https://www.transnav.eu/Article_A_Retrospective_Analysis_of_Maritime_,59,1144.html"
2021_001,2021,1,1,KH,Port,Intrusion,Une autorité portuaire est visée par une attaque d'un acteur étatique.,Politique,Intégrité,https://go.recordedfuture.com/hubfs/reports/cta-2021-1208.pdf
2021_002,2021,1,1,PH,Défense,Intrusion,Une marine est visée par une attaque d'un acteur étatique.,Politique,Intégrité,https://go.recordedfuture.com/hubfs/reports/cta-2021-1208.pdf
2021_003,2021,1,10,NO,Aquaculture,Virus/Rançongiciel,Une attaque par rançongiciel impacte une entreprise d'aquaculture.,Cybercriminalité,Disponibilité,https://www.seafoodsource.com/news/business-finance/cyber-attackers-take-a-usd-6-million-toll-on-akva-and-its-first-quarter-financials https://www.fishfarmermagazine.com/news/akva-targeted-by-ransomware-hackers/
2021_004,2021,1,21,AU,Logistique,Virus/Rançongiciel,Une entreprise logistique multimodale est touchée par une attaque à rançongiciel.,Cybercriminalité,Disponibilité,https://www.odt.co.nz/star-news/star-national/courier-and-freight-firm-toll-group-targeted-cyber-attack
2021_005,2021,1,29,US,Port,Fuite de données,Une autorité portuaire est touchée par une cyber attaque.,Cybercriminalité,Confidentialité,https://www.viport.com/post/vipa-alerts-public-of-data-security-incident https://www.virginislandsdailynews.com/news/port-authority-still-investigating-data-breach/article_d9734e54-3b3f-5b56-bc88-534baa15ea4f.html
2021_006,2021,2,4,SE,Navire,Leurrage/brouillage GPS/AIS,Plusieurs navires sont victimes de leurrage/brouillage AIS.,Non précisé,Intégrité,https://globalfishingwatch.org/data/analysis-reveals-false-vessel-tracks/
2021_007,2021,2,7,IN,Logistique,Virus/Rançongiciel,Une entreprise de logistique est victime d'une attaque par rançongiciel - fuite de données potentielle.,Cybercriminalité,Confidentialité,https://archives.nseindia.com/corporate/ALLCARGO_16022021143713_IntimationCyber.pdf
2021_008,2021,2,15,US,Société de classification,Virus/Rançongiciel,Une société de classification est victime d'une attaque par rançongiciel.,Cybercriminalité,Confidentialité,
2021_009,2021,2,18,MM,Port,Intrusion,Une autorité portuaire est touchée par une cyberattaque.,Politique,Intégrité,https://www.ouest-france.fr/monde/birmanie/birmanie-des-hackers-ciblent-la-junte-et-des-automobilistes-bloquent-les-deploiements-7159127 https://www.lemonde.fr/international/article/2021/02/18/en-birmanie-des-sites-gouvernementaux-cibles-par-des-hackeurs_6070355_3210.html
2021_010,2021,2,19,FR,Chantier naval,Virus/Rançongiciel,Un chantier naval est touché par une cyberattaque sur plusieurs sites. Perte de chiffre d'affaires estimée à 45 M€,Cybercriminalité,Disponibilité,https://www.actunautique.com/2021/02/beneteau-victime-d-un-cyberattaque.html https://www.bfmtv.com/economie/entreprises/beneteau-victime-d-une-cyberattaque-en-2021_VN-202112060480.html https://www.boatindustry.com/news/36934/beneteau-2021-growth-almost-evaporated-in-cyber-attack
2021_011,2021,2,23,AU,Organisation,Fuite de données,Une autorité en charge des transports est touchée par une fuite de données d'un de ses sous-traitants. 47 comptes de courriel compromis - 730 Go de données - 3.8 millions de documents exfiltrés concernant 186 000 clients.,Cybercriminalité,Confidentialité,https://www.service.nsw.gov.au/system/files/2021-05/snsw-data-breach-post-incident-report.pdf
2021_012,2021,3,6,CN,Armateur,Intrusion,Le système de messagerie d’un armateur est touché par une attaque.,Non précisé,Intégrité,https://www.maritimebusinessworld.com/cosco-shipping-hacked-by-a-brazilian-hacker-3084h.htm
2021_013,2021,3,18,JP,Armateur,Virus/Rançongiciel,Un armateur est touché par une attaque virale.,Non précisé,Disponibilité,https://www.maritime-executive.com/article/japan-s-k-line-apologizes-for-second-cyberattack-in-months
2021_014,2021,3,19,US,Armateur,Fuite de données,Une compagnie de croisière est touchée par une fuite de données.,Cybercriminalité,Confidentialité,https://threatpost.com/carnival-cruise-cyberattack/167065/ https://www.bleepingcomputer.com/news/security/carnival-cruise-hit-by-data-breach-warns-of-data-misuse-risk/
2021_015,2021,3,26,BE,Navire,Leurrage/brouillage GPS/AIS,Plusieurs navires navigant sur une zone fluviale sont victimes d'un brouillage GPS visant à protéger un navire de la menace drone.,Humaine,Disponibilité,https://www.flows.be/scheepvaart/2021/03/dronekiller-mogelijke-oorzaak-van-verstoring-scheepvaart-westerschelde/ https://www.omroepzeeland.nl/nieuws/13540046/navigatie-van-schepen-op-westerschelde-verstoord-door-dronekiller-van-luxe-jacht
2021_016,2021,4,1,GB,Armateur,Virus/Rançongiciel,Une compagnie de ferries est touchée par une cyberattaque,Non précisé,Disponibilité,https://nanao.cybtex.fr/@socat/106151149438485586
2021_017,2021,4,1,FR,Offshore,Arnaque,Une compagnie travaillant dans le domaine de l’offshore est touchée par une cyberattaque.,Non précisé,Intégrité,https://www.lejournaldesentreprises.com/region-sud/article/les-compagnies-maritimes-marseillaises-bourbon-et-gazocean-victimes-de-cyberattaques-1187758
2021_018,2021,4,7,AE,Armateur,Virus/Rançongiciel,Un armateur est visé par une cyberattaque par rançongiciel.,Cybercriminalité,Confidentialité,https://twitter.com/hiramcoop/status/1379920414990827521
2021_019,2021,4,7,US,Logistique,Virus/Rançongiciel,Un acteur logistique multimodal est touché par une attaque par rançongiciel.,Cybercriminalité,Intégrité,
2021_020,2021,4,8,FR,Armateur,Virus/Rançongiciel,Un armateur est touché par une attaque à rançongiciel.,Cybercriminalité,Disponibilité,https://www.lefigaro.fr/flash-eco/le-groupe-bourbon-frappe-par-une-cyberattaque-20210413 https://splash247.com/bourbon-confirms-cyber-attack/
2021_021,2021,4,27,FR,Fluvial,Virus/Rançongiciel,Une organisation fluviale est touchée par une cyberattaque.,Non précisé,Disponibilité,https://www.ladepeche.fr/2021/04/30/toulouse-les-voies-navigables-de-france-victime-dune-cyber-attaque-la-navigation-rouvre-quand-meme-lundi-9519708.php
2021_022,2021,5,3,RU,Défense,Harponnage,Un sous-traitant du secteur de la défense est touché par une attaque par harponnage.,Espionnage,Confidentialité,https://thehackernews.com/2021/05/new-chinese-malware-targeted-russias.html
2021_023,2021,5,10,NL,Logistique,Virus/Rançongiciel,Un acteur multimodal logistique est touché par une attaque.,Cybercriminalité,Disponibilité,
2021_024,2021,5,21,DE,Armateur,Arnaque,Des courriels et des factures sont manipulés par des tierces parties. Un montant total de 1.679 millions de dollars est versé vers un faux compte.,Cybercriminalité,Intégrité,https://www-hammonia--schiffsholding-de.translate.goog/index.php_nav_main=ir&nav_main_sub=ir_unternehmensmitteilungen&nav_main_sub_1=ir_aktuelle_unternehmensmitteilungen.html?_x_tr_sl=de&_x_tr_tl=en&_x_tr_hl=fr
2021_025,2021,5,22,PE,Logistique,Virus/Rançongiciel,Un acteur logistique est victime d'une attaque par rançongiciel.,Cybercriminalité,Confidentialité, https://www.cronup.com/ransomware-en-latam-prometheus-group-of-revil/
2021_026,2021,6,1,SG,Logistique,Virus/Rançongiciel,Une entreprise de logistique est touchée par une attaque à rançongiciel.,Cybercriminalité,Confidentialité,
2021_027,2021,6,2,US,Armateur,Virus/Rançongiciel,Une compagnie de transport de passagers est touchée par une attaque à rançongiciel.,Cybercriminalité,Disponibilité,https://www.marinelink.com/news/marthas-vineyard-nantucket-ferries-hit-488166 https://www.nbcboston.com/news/local/mass-steamship-authority-recovering-from-cyber-attack/2396340/ https://eu.capecodtimes.com/story/news/2021/06/02/ransomware-attack-woods-hole-marthas-vineyard-nantucket-steamship-authority-delaying-operations/7504952002/
2021_028,2021,6,2,FR,Equipementier,Virus/Rançongiciel,Une entreprise spécialisée dans les équipements sous-marins est victime d'une cyberattaque par rançongiciel.,Cybercriminalité,Intégrité,
2021_029,2021,6,3,BR,Port,Virus/Rançongiciel,Un acteur portuaire serait victime d'une cyberattaque par rançongiciel.,Cybercriminalité,Intégrité,
2021_030,2021,6,4,US,Logistique,Virus/Rançongiciel,Un acteur multimodal est victime d'une attaque par rançongiciel.,Cybercriminalité,Intégrité,
2021_031,2021,6,7,US,Fluvial,Virus/Rançongiciel,Un acteur du transport fluvial est concerné par une attaque par rançongiciel.,Cybercriminalité,Intégrité,
2021_032,2021,6,15,KR,Chantier naval,Intrusion,La messagerie d'un groupe industriel naval a fait l'objet d'une attaque.,Non précisé,Disponibilité,https://www.marineinsight.com/shipping-news/hmm-confirms-virus-attack-e-mail-system-affected-temporarily/ https://splash247.com/hmm-confirms-cyber-attack/
2021_033,2021,6,17,FR,Logistique,Virus/Rançongiciel,Un acteur du transport logistique multimodal est victime d'une attaque par rançongiciel.,Cybercriminalité,Intégrité,
2021_034,2021,6,21,KR,Chantier naval,Virus/Rançongiciel,Un chantier naval est touché par une cyber-attaque.,Non précisé,Intégrité,https://webcache.googleusercontent.com/search?q=cache:gFbjXuLu5UIJ:https://nationalcybersecuritynews.today/
2021_035,2021,6,24,IT,Logistique,Virus/Rançongiciel,Un acteur du transport logistique multimodal est victime d'une attaque par rançongiciel.,Cybercriminalité,Intégrité,https://www.infosec.news/2021/06/24/news/sicurezza-digitale/cyber-security-in-italia-camma-fa/
2021_036,2021,6,24,GB,Défense,Leurrage/brouillage GPS/AIS,Leurrage AIS concernant des navires militaires en Mer noire.,Non précisé,Intégrité,https://www.euronews.com/next/2021/06/28/hms-defender-ais-spoofing-is-opening-up-a-new-front-in-the-war-on-reality
2021_037,2021,6,29,CL,Logistique,Virus/Rançongiciel,Une agence de déouanement maritime est touchée par une attaque par rançongiciel.,Cybercriminalité,Intégrité,https://www.cronup.com/ransomware-en-latam-prometheus-group-of-revil/
2021_038,2021,6,29,JP,Armateur,Virus/Rançongiciel,Un armateur est touché par une attaque virale sur l'une de ses filiales.,Non précisé,Disponibilité,https://www.maritime-executive.com/article/japan-s-k-line-apologizes-for-second-cyberattack-in-months https://www.kline.co.jp/en/news/other/other-1346357855826564069/main/0/link/210701EN.pdf
2021_039,2021,7,7,NO,Organisation,Virus/Rançongiciel,Une organisation travaillant au profit du secteur maritime et des EMR est touchée par une cyberattaque. Fuite de données.,Cybercriminalité,Confidentialité,https://www.redpacketsecurity.com/revil-happy-blog-ransomware-victim-inocean-no-2000-gb/
2021_040,2021,7,9,PE,Pêche,Virus/Rançongiciel,Une entreprise de pêche est touchée par une attaque par rançongiciel. Risque de fuite de données.,Cybercriminalité,Confidentialité,https://inf.news/en/tech/a3de765c61ef44579368a7fcb763a1dc.html https://twitter.com/1ZRR4H/status/1413457847526969346
2021_041,2021,7,13,SY,Logistique,Virus/Rançongiciel,Une compagnie de transport maritime est touchée par une cyber attaque par rançongiciel. uite de données.,Cybercriminalité,Confidentialité,
2021_042,2021,7,13,ES,Logistique,Virus/Rançongiciel,Une compagnie de transport multimodale est touchée par une cyber attaque par rançongiciel.,Cybercriminalité,Confidentialité,https://www.silikn.com/2021/07/se-incrementa-la-actividad-del.html
2021_043,2021,7,22,SA,Port,Virus/Rançongiciel,Plusieurs ports sont touchés par une cyberattaque impactant leur Port Operating System.,Non précisé,Disponibilité,https://www.reuters.com/world/africa/exclusive-south-africas-transnet-hit-by-cyber-attack-sources-2021-07-22/
2021_044,2021,7,29,XX,Navire,Leurrage/brouillage GPS/AIS,Parution de deux articles sur les cas de leurrage AIS dans des zones de conflit maritime.,Non précisé,Disponibilité,https://skytruth.org/2021/07/systematic-data-analysis-reveals-false-vessel-tracks/ https://globalfishingwatch.org/data/analysis-reveals-false-vessel-tracks/
2021_045,2021,7,30,PE,Logistique,Virus/Rançongiciel,Une compagnie de transport maritime est victime d'une attaque par rançongiciel.,Cybercriminalité,Intégrité,
2021_046,2021,8,9,SG,Equipementier,Virus/Rançongiciel,Un équipementier travaillant dans le domaine de l'électricité au profit des navires et de l'offshore est ciblé par une attaque par rançongiciel.,Cybercriminalité,Intégrité,
2021_047,2021,8,11,ES,Logistique,Virus/Rançongiciel,Une compagnie de soutage est victime d'une attaque par rançongiciel.,Cybercriminalité,Disponibilité,https://www.freightwaves.com/news/did-hackers-pull-off-a-maritime-colonial-pipeline-20
2021_048,2021,8,11,TR,Logistique,Virus/Rançongiciel,Une compagnie de transport multimodal est touchée par une attaque par rançongiciel.,Cybecrime,Intégrité,
2021_049,2021,8,16,SG,Assureur,Virus/Rançongiciel,Une compagnie d'assurance maritime est victime d'une attaque par rançongiciel.,Cybercriminalité,Disponibilité,https://www.tokiomarinehd.com/en/release_topics/release/k82ffv000000az4g-att/20210816_e.pdf
2021_050,2021,8,21,DE,Logistique,Virus/Rançongiciel,Un acteur logistique est visé par une attaque par rançongiciel.,Cybercriminalité,Intégrité,https://www.leschaco.com/fileadmin/user_upload/Leschaco_FAQ_RansomwareIncident.pdf
2021_051,2021,8,21,JP,Pêche,Virus/Rançongiciel,Un acteur du secteur de la pêche est touché par une attaque par rançongiciel.,Cybercriminalité,Intégrité,
2021_052,2021,9,XX,US,Port,Intrusion,Un serveur en frontal sur Internet est compromis mais les conséquences sont limitées.,Non précisé,Confidentialité,https://www.workboat.com/government/cyber-incident-targets-texas-facility
2021_053,2021,9,19,FR,Armateur,Fuite de données,Fuite de données commerciales.,Cybercriminalité,Confidentialité,https://container-news.com/another-cyber-attack-challenges-cma-cgm/
2021_054,2021,10,12,TH,Offshore,Virus/Rançongiciel,Une compagnie d'exploration et de production de pétrole est victime d'un rançongiciel.,Cybercriminalité,Disponibilité,
2021_055,2021,10,12,QR,Offshore,Virus/Rançongiciel,Une compagnie offshore est victime d'une attaque par rançongiciel,Cybercriminalité,Disponibilité,
2021_056,2021,10,21,FR,Armateur,Fuite de données,Des données à caractère personnel sont compromises suite à la mise à jour d'un site Internet.,Humaine,Confidentialité,https://www.theregister.com/2021/11/10/brittany_ferries/
2021_057,2021,10,24,KR,Chantier naval,Virus/Rançongiciel,Un chantier naval est touché par une cyber-attaque.,Non précisé,Intégrité,https://www.maritime-executive.com/article/south-korean-shipbuilder-dsme-confirms-new-possible-cyber-attack
2021_058,2021,11,1,GR,Armateur,Virus/Rançongiciel,Plusieurs armateurs sont victimes d'une attaque sur un système de communication.,Cybercriminalité,Intégrité,https://www.maritime-executive.com/article/cyberattack-hits-multiple-greek-shipping-firms https://www.securedrive.com/blog/greek-shipping-software-hit-by-ransomware/
2021_059,2021,11,19,DK,EMR,Virus/Rançongiciel,Une compagnie spécialisée dans les énergies renouvelables - notamment marines - est touchée par une attaque par rançongiciel - risque de fuite de données.,Cybercriminalité, Confidentialité,https://www.vestas.com/en/media/company-news/2021/second-update-on-cyber-incident-c3462120 https://www.reuters.com/business/energy/hackers-make-some-vestas-data-public-after-ransomware-attack-2021-12-09/
2021_060,2021,11,20,FR,Société de classification,Intrusion,Une société de classification travaillant notamment au profit du monde maritime est touchée par une intrusion non détaillée qui aurait pu viser ses systèmes de messagerie.,Non précisé,Intégrité,https://group.bureauveritas.com/sites/g/files/zypfnx196/files/media/document/PR_BV_22112021_CyAt_FR_0.pdf
2021_061,2021,11,24,AU,Logistique,Virus/Rançongiciel,Une compagnie de transport de containers est victime d'une attaque par rançongiciel.,Cybercriminalité,Intégrité,https://www.tradetrucks.com.au/industry-news/2111/acfs-port-logistics-wards-off-cyber-attack
2021_062,2021,11,25,SG,Offshore,Virus/Rançongiciel,Une compagnie proposant des services offshore est touchée par une attaque par rançongiciel.,Cybercriminalité,Intégrité,https://www.hellenicshippingnews.com/swire-pacific-offshore-notice-of-cyber-security-incident/
2021_063,2021,11,27,FR,Assureur,Intrusion,Une compagnie d'assurance travaillant notamment au profit du secteur maritime est victime d'une cyberattaque.,Non précisé,Intégrité,https://www.verlingue.fr/point-dinformation-suite-a-la-tentative-dintrusion-des-systemes-informatiques-le-27-novembre-2021/
2021_064,2021,11,30,AR,Fluvial,Virus/Rançongiciel,Une compagnie fluviale est touchée par une attaque par rançongiciel.,Cybercriminalité,Intégrité,
2021_065,2021,12,6,HK,Logistique,Virus/Rançongiciel,Une entreprise de logistique est touchée par une attack par rançongiciel.,Cybercriminalité,Disponibilité,https://www.kerrylogistics.com/media/poxeg33s/notice-company-statement-8dec2021.pdf
2021_066,2021,12,8,MY,Port,Virus/Rançongiciel,Un terminal portuaire est touché par une attaque par rançongiciel. Risque de fuite de données personnelles et commerciales.,Cybercriminalité,Confidentialité,
2021_067,2021,12,9,SG,Logistique,Virus/Rançongiciel,Une agence de services offshore et de logistique est touchée par une attaque par rançongiciel. Risque de fuite de données personnelles et commerciales.,Cybercriminalité,Confidentialité,
2021_068,2021,12,14,JP,Equipementier,Virus/Rançongiciel,Un fabricant de moteurs travaillant notamment au profit du monde maritime est victime d'une attaque par rançongiciel.,Cybercriminalité,Confidentialité,
2021_069,2021,12,15,DE,Logistique,Virus/Rançongiciel,Une entreprise de logistique est touchée par une attaque par rançongiciel.,Cybercriminalité,Disponibilité,https://www.hellmann.com/en/germany/it-infrastructure#updates
2021_070,2021,12,19,ID,Offshore,Virus/Rançongiciel,Une compagnie travaillant dans le domaine de l'offshore et du gaz est victime d'une attaque par rançongiciel.,Cybercriminalité,Disponibilité,
2021_071,2021,12,25,GB,Logistique,Virus/Rançongiciel,Une entreprise de logistique est touchée par une attaque par rançongiciel.,Cybercriminalité,Intégrité,
2021_072,2021,12,28,NO,Offshore,Virus/Rançongiciel,Une compagnie travaillant dans le domaine de l'offshore et du gaz aurait été victime d'une attaque par rançongiciel.,Cybercriminalité,Disponibilité,
2022_001,2022,1,6,IT,Pêche,Virus/Rançongiciel,Une entreprise travaillant dans le secteur de la pêche est victime d'une cyberattaque par rançongiciel.,Cybercriminalité,Intégrité,
2022_002,2022,1,7,US,Port,Virus/Rançongiciel,Une autorité portuaire est victime d'une cyberattaque par rançongiciel.,Cybercriminalité,Intégrité,
2022_003,2022,1,11,IT,Logistique,Virus/Rançongiciel,Une entreprise travaillant dans le secteur de la logistique - notamment maritime - est touchée par une attaque par rançongiciels.,Cybercriminalité,Disponibilité,https://hackerjournal.it/8332/attacco-ransomware-al-gruppo-arcese/
2022_004,2022,1,14,UA,Administration,Intrusion,Le site Internet d'une administration maritime est touché par une cyberattaque.,Politique,Intégrité,https://csirt-mon.wp.mil.pl/pl/articles6-aktualnosci/analysis-cyberattack-ukrainian-government-resources/
2022_005,2022,1,15,KP,Administration,Déni de service,Une administration maritime est victime d'une attaque par déni de service.,Politique,Disponibilité,https://team-cymru.com/blog/2022/02/03/expert-analyst-insight-into-north-korean-internet-outages/
2022_006,2022,1,28,FR,Armateur,Intrusion,Une compagnie de transport maritime est l'objet de tentatives d'intrusion.,Non précisé,Intégrité,https://twitter.com/CorsicaLinea/status/1488504604325257220
2022_007,2022,1,28,BE,Industrie,Virus/Rançongiciel,Une compagnie pétrolière est touchée par une attaque par rançongiciel.,Non précisé,Intégrité, https://www.reuters.com/article/idUSL1N2UE0PS https://www.securityweek.com/european-oil-port-terminals-hit-cyberattack https://securityaffairs.co/wordpress/127583/hacking/oil-port-terminals-hit-cyberattack.html https://www.lemonde.fr/international/article/2022/02/03/cyberattaque-des-sites-portuaires-vises-en-allemagne-en-belgique-et-aux-pays-bas_6112185_3210.html
2022_008,2022,1,29,DE,Industrie,Virus/Rançongiciel,Une compagnie pétrolière est touchée par une attaque par rançongiciel.,Non précisé,Intégrité,https://www.handelsblatt.com/unternehmen/energieversorgung-cyberangriff-legt-oiltanking-tanklager-deutschlandweit-vollstaendig-lahm-tankwagen-beladung-ausser-betrieb/28023918.html https://www.spiegel.de/netzwelt/web/shell-und-co-betroffen-cyberangriff-auf-benzin-versorger-von-tankstellen-in-deutschland-a-5f4494a1-db24-4cca-820e-dea923ac66a9 https://securityaffairs.co/wordpress/127493/hacking/oiltanking-gmbh-cyber-attack.html https://www.lemonde.fr/international/article/2022/02/03/cyberattaque-des-sites-portuaires-vises-en-allemagne-en-belgique-et-aux-pays-bas_6112185_3210.html
2022_009,2022,2,1,IL,Chantier naval,Intrusion,Un chantier naval est victime d'une intrusion.,Politique,Intégrité,"https://www.calcalistech.com/ctech/articles/0,7340,L-3928403,00.html"
2022_010,2022,2,5,US,Logistique,Virus/Rançongiciel,Une compagnie de transport multimodal est touchée par une attaque par rançongiciel.,Cybercriminalité,Disponibilité,
2022_011,2022,2,5,VN,Industrie,Virus/Rançongiciel,Une compagnie pétrolière est touchée par une attaque par rançongiciel.,Cybercriminalité,Disponibilité,
2022_012,2022,2,7,GB,Armateur,Intrusion,Une compagnie de ferries fait l'objet d'une intrusion. Exfiltration de données à caractère personnel.,Cybercriminalité,Confidentialité,https://www.islandecho.co.uk/wightlink-suffers-sophisticated-cyber-attack-exposing-customers-details/
2022_013,2022,2,9,VN,Industrie,Virus/Rançongiciel,Une compagnie pétrolière est touchée par une attaque par rançongiciel.,Cybercriminalité,Disponibilité,
2022_014,2022,2,14,DE,Industrie,Virus/Rançongiciel,Une compagnie d’ingénierie maritime est touchée par une attaque par rançongiciel.,Cybercriminalité,Disponibilité,
2022_015,2022,2,20,GB,Armateur,Virus/Rançongiciel,un compagnie de croisière de luxe est victime d'une attaque par rançongiciel.,Cybercriminalité,Intégrité,https://www.travelagentcentral.com/cruises/scenics-glen-maroney-details-cyber-attack-apologizes-and-explains-whats-happened
2022_016,2022,2,20,US,Logistique,Virus/Rançongiciel,Une entreprise mondiale de logistique est touchée par une attaque par rançongiciel.,Cybercriminalité,Disponibilité,https://www.expeditors.com/022022-downtime-notification https://investor.expeditors.com/press-releases/2022/02-21-2022-032617120 https://www.freightwaves.com/news/global-logistics-giant-expeditors-suffers-cyberattack-shuts-down-operations-systems
2022_017,2022,2,21,KR,Chantier naval,Virus/Rançongiciel,Une entreprise de construction de navires est touchée par une attaque par rançongiciel.,Cybercriminalité,Disponibilité,
2022_018,2022,2,21,IN,Port,Virus/Rançongiciel,Un terminal portuaire est touché par une attaque. Des navires sont détournés de cette destination pour pallier au ralentissement du port.,Cybercriminalité,Disponibilité,https://container-news.com/cyber-attack-hits-state-owned-terminal-at-indias-jnpt/ https://maritime-executive.com/article/indian-container-terminal-diverts-ships-due-to-ransomware-attack
2022_019,2022,2,23,IL,Port,Fuite de données,Un groupe de hacker étatique diffuse des enregistrement de vidéo-surveillance d’un port.,Politique,Confidentialité,https://english.iswnews.com/22922/israel-the-ports-of-haifa-and-ashdod-were-hacked-video-and-files/ https://www.middleeastmonitor.com/20220224-iran-hacks-cctv-at-israels-haifa-ashdod-ports/
2022_020,2022,2,24,US,EMR,Intrusion,Une attaque sur le segment sol d'un système de télécommunications par satellite entraine la perte de surveillance à distance de plusieurs milliers d'éoliennes - notamment offshore.,Politique,Intégrité,https://www.viasat.com/about/newsroom/blog/ka-sat-network-cyber-attack-overview/
2022_021,2022,2,26,UA,Navire,Leurrage/brouillage GPS/AIS,Plusieurs cas de leurrages AIS suite au conflit Russie/Ukraine. Probablement réalisés en-dehors du spectre électromagnétique (c'est-à-dire sur l'API de certains sites de fusion d'information AIS).,Politique,Intégrité,https://www.independent.co.uk/tech/anonymous-vladimir-putin-yacht-fckptn-b2024780.html
2022_022,2022,2,28,US,Equipementier,Virus/Rançongiciel,Une entreprise de construction maritime est touchée par une attaque par rançongiciel.,Cybercriminalité,Disponibilité,
2022_023,2022,3,7,DE,Armateur,Harponnage,Le site Internet d'un armateur est contrefait afin de réaliser des attaques de harponnage.,Cybercriminalité,Intégrité,https://www.hapag-lloyd.com/en/services-information/news/2022/03/mar07-cyber-threat-phishing-attack.html
2022_024,2022,3,18,LB,Logistique,Virus/Rançongiciel,Un acteur du transport logistique multi-modal est touché par une attaque par rançongiciel.,Cybercriminalité,Intégrité,
2022_025,2022,3,25,US,Port,Harponnage,Plusieurs sites Internet du Maritime Transportation System font l'objet de détournements.,Cybercriminalité,Intégrité,https://www.dco.uscg.mil/Portals/9/Maritime%20Cyber%20Alert%2001-22%20TLP%20WHITE.pdf
2022_026,2022,3,31,DE,EMR,Virus/Rançongiciel,Une entreprise spécialisée dans l'énergie éolienne est victime d'une attaque par rançongiciel.,Cybercriminalité,Disponibilité,https://www.nordex-online.com/en/2022/04/update-on-cyber-security-incident/
2022_027,2022,3,31,GB,Armateur,Virus/Rançongiciel,Une entreprise spécialisée dans la location de yachts de luxe est victime d'une attaque par rançongiciel.,Cybercriminalité,Disponibilité,
2022_028,2022,4,13,US,Câble sous-marin,Intrusion,Un opérateur de télécommunications opérant un câble sous-marin est victime d'une attaque informatique sur les infrastructures de gestion du câble.,Non précisé,Disponibilité,https://www.hawaiinewsnow.com/2022/04/13/hsi-agents-honolulu-disrupted-cyberattack-undersea-cable-critical-telecommunications/
2022_029,2022,4,14,OM,Port,Virus/Rançongiciel,Un port est victime d'une attaque par rançongiciel.,Cybercriminalité,Intégrité,
2022_030,2022,4,15,IQ,Port,Virus/Rançongiciel,Un port multimodal est victime d'une attaque par rancongiciel.,Cybercriminalité,Intégrité,
2022_031,2022,4,17,GB,Armateur,Virus/Rançongiciel,Une compagnie de ferry est touchée par une cyberattaque.,Cybercriminalité,Intégrité,
2022_032,2022,4,19,GB,Assureur,Arnaque,Un adhérent d'une compagnie d'assurance est victime d'une arnaque au faux ordre de virement.,Cybercriminalité,Intégrité,https://britanniapandi.com/2022/04/cyber-fraud-incident/
2022_033,2022,4,20,GR,Armateur,Virus/Rançongiciel,Un armateur est victime d'une attaque par rançongiciel.,Cybercriminalité,Intégrité,
2022_034,2022,4,23,DE,EMR,Virus/Rançongiciel,Une entreprise travaillant notamment dans le domaine des éoliennes offshore est victime d'une attaque par rançongiciel.,Cybercriminalité,Intégrité,https://www.deutsche-windtechnik.com/press-information/item/463-Cyber-attack-on-Deutsche-Windtechnik
2022_035,2022,4,26,PE,Industrie,Virus/Rançongiciel,Un industriel travaillant notamment dans la construction d'ouvrages maritimes est victime d'une attaque par rançongiciel.,Cybercriminalité,Intégrité,
2022_036,2022,4,27,GR,Armateur,Virus/Rançongiciel,Un armateur évoluant dans le secteur des ferries est victime d'une attaque par rançongiciel.,Cybercriminalité,Intégrité,
2022_037,2022,4,29,US,Industrie,Virus/Rançongiciel,Un industriel travaillant au profit du secteur maritime est victime d'une attaque par rançongiciel.,Cybercriminalité,Intégrité,
2022_038,2022,5,10,US,Pêche,Virus/Rançongiciel,Une compagnie de pêche est victime d'un rançongiciel.,Cybercriminalité,Disponibilité,
2022_039,2022,5,13,US,Industrie,Virus/Rançongiciel,Un équipementier du secteur maritime est victime d'une attaque par rançongiciel.,Cybercriminalité,Intégrité,
2022_040,2022,5,21,TW,Logistique,Virus/Rançongiciel,Une entreprise de logistique multimodale est victime d'une attaque par rançongiciel.,Cybercriminalité,Intégrité,
2022_041,2022,5,23,GB,Fluvial,Déni de service,Le site Internet d'un port fluvial est victime d'une attaque en déni de service.,Politique,Disponibilité,https://techmonitor.ai/technology/cybersecurity/port-of-london-authority-cyberattack
2022_042,2022,5,24,CY,Administration,Fuite de données,Une base de données contenant des données d'affiliés d'une instance politique liée au monde maritime est vendue en ligne.,Cybercriminalité,Confidentialité,
2022_043,2022,6,1,JP,Pêche,Fuite de données,Une coopérative du monde de la pêche a vu les données relatives à ses clients publiées suite à une infection par le malware Emotet.,Cybercriminalité,Confidentialité,
2022_044,2022,6,2,IT,Port,Déni de service,Plusieurs applications web de ports sont victimes d'attaques par déni de service distribué.,Politique,Disponibilité,https://livornopress.it/porti-italiani-sotto-attacco-di-hacker-russi-nella-lista-di-killnet-anche-livorno
2022_045,2022,6,3,US,Logistique,Virus/Rançongiciel,Une compagnie de transport multimodal est touchée par une attaque par rançongiciel.,Cybercriminalité,Intégrité,
2022_046,2022,6,4,JP,Logistique,Virus/Rançongiciel,Une compagnie de transport de fret est victime d'un rançongiciel.,Non précisé,Disponibilité,http://www.sumiwa.com/wp-content/uploads/2d81af2c68c69db5f85b40f6306265a72.pdf
2022_047,2022,6,6,ID,Logistique,Virus/Rançongiciel,Une entreprise de logistique est touchée par une attaque par rançongiciel.,Cybercriminalité,Intégrité,
2022_048,2022,6,10,CY,Logistique,Virus/Rançongiciel,Une entreprise de transport de fret est touchée par une attaque par rançongiciel,Cybercriminalité,Intégrité,
2022_049,2022,6,12,US,Industrie,Virus/Rançongiciel,Une compagnie pétrolière est touchée par une attaque par rançongiciel.,Cybercriminalité,Intégrité,
2022_050,2022,6,14,ID,Industrie,Virus/Rançongiciel,Une compagnie pétrolière est touchée par une attaque par rançongiciel.,Cybercriminalité,Intégrité,
2022_051,2022,6,24,LT,Armateur,Virus/Rançongiciel,Une compagnie de ferry est touchée par une cyberattaque.,Politique,Disponibilité,
2022_052,2022,6,28,TW,Port,Fuite de données,Une base de données sur des navires et leur cargaison en transit par un port de Taïwan est mise en ligne,Cybercriminalité,Confidentialité,
2022_053,2022,6,29,TR,Logistique,Virus/Rançongiciel,Une compagnie de transport maritime est touchée par une cyberattaque.,Cybercriminalité,Intégrité,
2022_054,2022,6,29,US,Industrie,Virus/Rançongiciel,Une entreprise dans les solutions subaquatiques pour les secteurs de l'océanographie et le secteur naval victime d'une cyberattaque.,Cybercriminalité,Intégrité,
2022_055,2022,6,29,IN,Logistique,Virus/Rançongiciel,Une entreprise de solution de transport maritime est touchée par une cyberattaque.,Cybercriminalité,Intégrité,
2022_056,2022,6,30,AU,Offshore,Phishing,Une campagne de phishing a lieu durant les mois d'avril et de juin contre des opérateurs d'éoliennes offshore.,Politique,Confidentialité,https://www.darkreading.com/vulnerabilities-threats/chinese-hackers-target-energy-sector-australia-south-china-sea https://www.proofpoint.com/us/blog/threat-insight/chasing-currents-espionage-south-china-sea
2022_057,2022,7,2,US,Logistique,Virus/Rançongiciel,Une compagnie de logistique multimodale est victime d'une attaque par rançongiciel.,Cybercriminalité,Intégrité,
2022_058,2022,7,4,FR,Organisation,Compromission site Internet,Le site Internet d'une association en lien avec le monde naval est compromis par des pages de revendication politique.,Politique,Intégrité,
2022_059,2022,7,4,GB,Armateur,Virus/Rançongiciel,Un armateur de ferries est victime d'une attaque par rançongiciel.,Cybercriminalité,Intégrité,
2022_060,2022,7,6,FR,Industrie,Virus/Rançongiciel,Un sous-traitant travaillant notamment au profit du secteur portuaire et naval est victime d'une attaque par rançongiciel. Fuite de données.,Cybercriminalité,Confidentialité,
2022_061,2022,7,11,TR,Navire,Fuite de données,Une entreprise travaillant dans le secteur des télécommunications maritimes par satellite est victime d'une fuite de données.,Cybercriminalité,Confidentialité,
2022_062,2022,7,14,US,Armateur,Virus/Rançongiciel,Un armateur de barges et de remorqueurs est victime d'une attaque par rançongiciel.,Cybercriminalité,Intégrité,
2022_063,2022,7,22,FI,Logistique,Virus/Rançongiciel,Un équipementier majeur du secteur maritime est victime d'une attaque par rançongiciel. Fuite de données.,Cybercriminalité,Confidentialité,
2022_064,2022,7,22,PH,Enseignement supérieur et recherche,Virus/Rançongiciel,Un centre de formation maritime est victime d'une attaque par rançongiciel. La compromission est suivie d'une fuite de données et de leur vente.,Cybercriminalité, Intégrité,
2022_065,2022,8,1,IT,Défense,Fuite de données,Une entreprise travaillant dans le secteur de l'industrie des missiles notamment pour le secteur maritime est l'objet d'une fuite de données potentiellement sensibles suite à la récupération d'informations présentes sur un disque dur.,Non précisé,Confidentialité,https://www.mbda-systems.com/2022/08/01/hacking-allegations-against-mbda-italy/
2022_066,2022,8,6,BG,Logistique,Virus/Rançongiciel,Un compagnie de transport de fret est victime d'un rançongiciel.,Cybercriminalité,Intégrité,
2022_067,2022,8,17,IL,Armateur,Phishing,Un acteur étatique aurait mené des attaques sur le secteur maritime.,Politique,Intégrité,https://www.mandiant.com/resources/blog/suspected-iranian-actor-targeting-israeli-shipping
2022_068,2022,8,18,FR,Défense,Fuite de données,Un industriel dans le domaine de la défense notamment navale est victime d'une fuite de données.,Non précisé,Confidentialité,https://www.bfmtv.com/tech/actualites/cybersecurite/victime-d-une-cyberattaque-le-francais-nexeya-deplore-une-fuite-de-donnees-considerable_AD-202208180425.html
2022_069,2022,8,25,SG,Logistique,Fuite de données,La base de données d'un outil en cours de développement est mise en ligne.,Cybercriminalité,Confidentialité,
2022_070,2022,8,31,SG,Chantier naval,Intrusion,Un constructeur de navires et de plateformes offshore détecte une intrusion dans ses systèmes informatiques. Fuite de données à caractère personnel.,Non précisé,Non précisé,https://safety4sea.com/sembcorp-marine-hit-by-cyber-security-incident/ https://www.sembmarine.com/stock-exchange-announcements/sembcorp-marine-reports-c
2022_071,2022,9,2,SA,Logistique,Virus/Rançongiciel,Un acteur de la logistique multimodale est victime d'une attaque par rançongiciel.,Cybercriminalité,Intégrité,
2022_072,2022,9,5,PA,Logistique,Virus/Rançongiciel,Un acteur de la logistique multimodale est victime d'une attaque par rançongiciel.,Cybercriminalité,Intégrité,
2022_073,2022,9,13,CN,Enseignement supérieur et recherche,Phishing,Un centre de recherche et de formation en lien avec le maritime évoque une attaque avancée utilisant comme vecteur le phishing.,Politique,Intégrité,https://www.zdnet.com/article/china-says-nsa-used-multiple-cybersecurity-tools-in-attacks-against-chinese-university/
2022_074,2022,9,15,SG,Port,Virus/Rançongiciel,Un acteur portuaire est visé par une attaque par rançongiciel.,Cybercriminalité,Intégrité,
2022_075,2022,9,18,PH,Port,Virus/Rançongiciel,Un acteur portuaire est visé par une attaque par rançongiciel.,Cybercriminalité,Intégrité,
2022_076,2022,9,25,US,Logistique,Virus/Rançongiciel,Une compagnie de transport maritime est victime d'une attaque par rançongiciel.,Cybercriminalité,Intégrité,
2022_077,2022,10,3,ID,Armateur,Fuite de données,Un armateur voit les images des réseaux CCTV de ses navires disponibles en ligne.,Non précisé,Confidentialité,
2022_078,2022,10,4,US,Industrie,Virus/Rançongiciel,Une compagnie travaillant sur les projets sous-marins complexes est victime d'une attaque par rançongiciel.,Cybercriminalité,Intégrité,
2022_079,2022,10,9,FR,Organisation,Virus/Rançongiciel,Un groupement lié au monde maritime est touché par un rançongiciel.,Cybercriminalité,Intégrité,
2022_080,2022,10,12,US,Port,Virus/Rançongiciel,Une organisation gérant le transport et le stockage de véhicules au sein de ports est victime d'une attaque par rançongiciel.,Cybercriminalité,Intégrité,
2022_081,2022,10,15,BU,Port,Déni de service,Plusieurs applications web des ports et administrations maritimes sont touchées par une attaque en déni de service.,Politique,Disponibilité,
2022_082,2022,11,4,US,Logistique,Virus/Rançongiciel,Un acteur logistique d'un port est victime d'une attaque par rançongiciel.,Cybercriminalité,Intégrité,
2022_083,2022,11,24,FR,Port,Hameçonnage,Une association regroupant plusieurs acteurs du monde portuaire est victime d'une campagne de hameçonnage.,Non précisé,Confidentialité,
2022_084,2022,10,17,NL,Port,Virus/Rançongiciel,Un opérateur portuaire international est touché par une attaque par rançongiciel.,Cybercriminalité,Disponibilité,
2022_085,2022,12,2,SG,Solution logicielle,Non précisé,Un fournisseur de solution logicielle voit son service indisponible suite à une cyberattaque.,Non précisé,Disponibilité,https://www.geopolitical.report/voyager-worldwide-hit-by-a-cyberattack/ https://splash247.com/voyager-worldwide-hit-by-cyber-attack/
2022_086,2022,12,20,DE,Industrie,Non précisé,La branche mère d'une entreprise de construction navale et matériaux est touchée par une cyberattaque.,Non précisé,Non précisé,https://www.spiegel.de/netzwelt/web/thyssenkrupp-hacker-verueben-angriff-auf-werkstoffsparte-a-42b0d13e-c2f7-450d-8f50-558412aa981b https://www.reuters.com/legal/government/thyssenkrupp-says-it-was-target-cyberattack-2022-12-20/
2022_087,2022,12,26,PT,Port,Virus/Rançongiciel,L'administration d'un port majeur est touchée par une cyberattaque.,Cybercriminalité,Disponibilité,https://www.publico.pt/2022/12/26/sociedade/noticia/porto-lisboa-alvo-ataque-informatico-crime-nao-comprometeu-operacoes-2032713 https://www.bleepingcomputer.com/news/security/lockbit-ransomware-claims-attack-on-port-of-lisbon-in-portugal/
2023_001,2023,1,7,SE,Solution logicielle,Virus/Rançongiciel,L’accès cloud à un logiciel de gestion de navires est éteint suite à un rançongiciel,Non précisé,Disponibilité,https://www.dnv.com/news/cyber-attack-on-shipmanager-a-dnv-software-237552 https://theloadstar.com/dnv-admits-up-to-1000-vessels-affected-by-ransomware-attack/
2023_002,2023,2,9,PK,Organisation,Harponnage, Une campagne de harponnage cible les participants à une conférence., Non Précisé, Intégrité,https://blogs.blackberry.com/en/2023/02/newspenguin-a-previously-unknown-threat-actor-targets-pakistan-with-advanced-espionage-tool
2023_003,2023,2,5,FR,Solution logicielle,Virus/Rançongiciel,Une solution logicielle hébergée dans le cloud est rendue indisponible suite à l'attaque de son hébergeur., Cybercriminalité, Disponibilité,https://ready4sea.com/blog/ 
2023_004,2023,2,15,NO,Offshore,Virus/Rançongiciel,Une entreprise spécialisée en ingénierie offshore voit une de ses filiales être victime d'un rançongiciel.,Cybercriminalité,Disponibilité,https://brazilenergyinsight.com/2023/02/15/aker-solutions-brazilian-arm-becomes-a-victim-of-cyber-attack/ https://container-news.com/aker-solutions-confirms-cyber-attack-on-its-brazilian-subsidiary/ 
2023_005,2023,2,21,FR,Défense,DDOS,Un industriel du domaine du naval de défense est ciblé par une attaque en déni de service distribué menée par plusieurs groupes hacktivistes dans le cadre du conflit russo-ukrainien.,Hacktivisme,Disponibilité,https://www.numerama.com/cyberguerre/1277226-des-hackers-russes-sattaquent-a-la-france-pendant-le-discours-de-poutine.html
2023_006,2023,2,24,FR,Industrie,Virus/Rançongiciel,Une compagnie d’ingénierie spécialisée dans les équipements de sécurité utilisés dans le cadre de programmes militaires et navals est menacée de fuite de données suite à une attaque par rançongiciel.,Cybercriminalité,Confidentialité,https://thecyberexpress.com/hemeria-group-data-breach-snatch-ransomware/
2023_007,2023,3,7,LT,Logistique,DDOS,Une société lituanienne de transport maritime de fret est victime d’une campagne de DDOS lancée par un mouvement hacktiviste russe dans le cadre du conflit russo-ukrainien.,Hacktivisme,Disponibilité,https://thecyberexpress.com/pro-russia-noname-cyberattack-vlantana-rukso/
2023_008,2023,03,14,NL,Services IT,Virus/Rançongiciel,Une société hollandaise de fourniture de services de suivi de flotte est menacée d’une fuite de données suite à une attaque par rançongiciel.,Cybercriminalité,Confidentialité,https://hacknotice.com/2023/03/13/royal-dirkzwager/
2023_009,2023,02,24,FR,Défense,Virus/Rançongiciel,Une compagnie d’ingénierie spécialisée dans les équipements de sécurité utilisés dans le cadre de programmes militaires et navals est menacée de fuite de données suite à une attaque par rançongiciel.,Cybercriminalité,Confidentialité,https://thecyberexpress.com/hemeria-group-data-breach-snatch-ransomware/
2023_010,2023,02,21,FR,Défense,DDOS,Un industriel du domaine du naval de défense est ciblé par une attaque en déni de service distribué menée par plusieurs groupes hacktivistes dans le cadre du conflit russo-ukrainien.,Hacktivisme,Disponibilité,https://www.numerama.com/cyberguerre/1277226-des-hackers-russes-sattaquent-a-la-france-pendant-le-discours-de-poutine.html
2023_11,2023,03,06,AU,Administration,Intrusion,Le musée maritime national australien est victime d’une attaque réalisée par un prestataire.,Cybercriminalité, Confidentialité,https://www.cybersecurityconnect.com.au/Industrie/8769-australian-national-maritime-museum-suffers-internal-cyber-attack
2023_12,2023,03,07,DE,Défense,DDOS,"Un industriel allemand présent sur le secteur du naval de défense, est vicitime d’une attaque par DDOS, lancée par plusieurs groupes hacktivistes pro-russes.",Hacktivisme,Disponibilité,https://cybernews.com/cyber-war/pro-russian-hacktivists-swarm-australian-schools/
2023_13,2023,03,15,FR,Défense,Erreur,Un acteur important du domaine de la défense et du naval est victime de fuite de données confidentielles suite à une erreur de configuration.,Erreur humaine,Confidentialité,https://securityaffairs.com/143505/security/safran-group-leaks-sensitive-data.html
2023_14,2023,03,18,DK,Transport,DDOS,Un armateur danois spécialisé dans le Transport de conteneurs est victime d’une fuite de données suite à une attaque par un groupe hacktiviste.,Hacktivisme,Confidentialité,https://theloadstar.com/maersk-says-posted-data-is-not-current-and-not-from-attack-by-hackers/
2023_15,2023,03,20,GE,EMR,Virus/Rançongiciel,Une compagnie d’ingénierie intervenant dans le domaine des énergies marines renouvelables est menacée de fuites de données suite à une attaque par rançongiciel.,Cybercriminalité,Confidentialité,https://thecyberexpress.com/fichtner-Virus/Rançongicielware-attack/
2023_16,2023,03,21,AU,Industrie,DDOS,Une compagnie spécialisée dans les travaux sous-marins et les travaux sur emprise portuaire est victime d’une attaque en déni de service distribué en réponse à l’utilisation d’un vêtement jugé insultant lors du Melbourne fashion show.,Hacktivisme,Disponibilité,https://radware.com/security/threat-advisories-and-attack-reports/opaustralia-opsjentik/
2023_17,2023,03,21,AU,Port,DDOS,Le port de Townsville est victime d’une attaque en déni de service distribué en réponse à l’utilisation d’un vêtement jugé insultant lors du Melbourne fashion show.,Hacktivisme,Disponibilité,https://radware.com/security/threat-advisories-and-attack-reports/opaustralia-opsjentik/
2023_18,2023,03,21,AU,Port,DDOS,"La société de gestion des ports d’Albany, Bunbury et Esperance est victime d’une attaque en déni de service distribué en réponse à l’utilisation d’un vêtement jugé insultant lors du Melbourne fashion show.",Hacktivisme,Disponibilité,https://radware.com/security/threat-advisories-and-attack-reports/opaustralia-opsjentik/
2023_19,2023,03,21,AU,Port,DDOS,"La société d’Administration des ports du Quennsland, qui administre 9 ports du nord de l’Australie, est victime d’une attaque en déni de service distribué en réponse à l’utilisation d’un vêtement jugé insultant lors du Melbourne fashion show.",Hacktivisme,Disponibilité,https://radware.com/security/threat-advisories-and-attack-reports/opaustralia-opsjentik/
2023_20,2023,03,21,AU,Port,DDOS,Le port de Melbourne est victime d’une attaque en déni de service distribué en réponse à l’utilisation d’un vêtement jugé insultant lors du Melbourne fashion show.,Hacktivisme,Disponibilité,https://radware.com/security/threat-advisories-and-attack-reports/opaustralia-opsjentik/
2023_21,2023,03,21,AU,Port,DDOS,Le port d’Albany est victime d’une attaque en déni de service distribué en réponse à l’utilisation d’un vêtement jugé insultant lors du Melbourne fashion show.,Hacktivisme,Disponibilité,https://radware.com/security/threat-advisories-and-attack-reports/opaustralia-opsjentik/
2023_22,2023,03,21,AU,Port,DDOS,Le port de Portland est victime d’une attaque en déni de service distribué en réponse à l’utilisation d’un vêtement jugé insultant lors du Melbourne fashion show.,Hacktivisme,Disponibilité,https://radware.com/security/threat-advisories-and-attack-reports/opaustralia-opsjentik/
2023_23,2023,03,22,IT,Administration,DDOS,"Le Ministère des Transports, ainsi que l’autorité de régulation des Transports italiens sont visés par une attaque en déni de service distribué.",Hacktivisme,Disponibilité,https://www.redhotcyber.com/post/noname057-attacca-il-ministero-delle-infrastrutture-e-dei-trasporti-il-sito-e-offline/
2023_24,2023,03,23,AU,Port,DDOS,Le port de Darwin est victime d’une attaque en déni de service distribué en réponse à l’utilisation d’un vêtement jugé insultant lors du Melbourne fashion show.,Hacktivisme,Disponibilité,https://radware.com/security/threat-advisories-and-attack-reports/opaustralia-opsjentik/
2023_25,2023,03,23,AE,Port,Virus/Rançongiciel,Une compagnie de construction navale émirienne est victime d’une attaque par rançongicielle.,Cybercriminalité,Disponibilité,https://app.hacknotice.com/#/hack/641c46a7e6832c637a6dd653
2023_26,2023,03,24,FR,Défense,Virus/Rançongiciel,"Un spécialiste des solutions logicielles de traitement de données français, particulièrement implanté dans le domaine de la défense, est victime d’une attaque par rançongiciel.",Cybercriminalité,Disponibilité,https://www.bankinfosecurity.com/clop-goanywhere-attacks-have-now-hit-130-organizations-a-21526
2023_27,2023,03,31,IL,Port,DDOS,"Le port israelien de Haifa est victime d’une attaque en déni de service distribué, perpétrée par un mouvement hacktiviste musulman.",Hacktivisme,Disponibilité,https://www.ynetnews.com/business/article/b1vpnu00z2
2023_28,2023,03,31,IL,Port,DDOS,"Le port israelien d’Eilat est victime d’une attaque en déni de service distribué, perpétrée par un mouvement hacktiviste musulman.",Hacktivisme,Disponibilité,https://www.ynetnews.com/business/article/b1vpnu00z2
2023_29,2023,04,09,SD,Administration,Intrusion,"L’autorité d’Administration des ports soudanais est menacée de fuite de données suite à une attaque réalisée par un groupe hacktiviste d’origine indienne, en réponse aux attaques réalisées par Anonymous Soudan sur les infrastructures indiennes.",Hacktivisme,Disponibilité,https://thecyberexpress.com/anonymous-sudan-attacks-on-india-russian-ties/
2023_30,2023,04,09,DE,Administration,DDOS,Le Ministère allemand des Transports et des Infrastructures numériques est victime d’une attaque en déni de service distribué.,Hacktivisme,Disponibilité,https://thecyberexpress.com/noname-hacker-group-targets-german-government/
2023_31,2023,04,11,CA,Port,DDOS,"L’autorité portuaire du port canadien de Hamilton-Oshawa est victime d’une attaque par déni de service distribué, provoquée par un groupe hacktiviste pro-russe.",Hacktivisme,Disponibilité,https://ici.radio-canada.ca/nouvelle/1971087/noname057-site-web-ports-canadiennes-pirates-informatiques-prorusses
2023_32,2023,04,12,US,Défense,Virus/Rançongiciel,Un chantier de construction naval américain spécialisé dans le secteur de la défense est victime d’une attaque par rançongiciel.,Cybercriminalité,Disponibilité,https://news.usni.org/2023/04/20/Virus/Rançongicielware-attack-hits-marinette-marine-shipyard-results-in-short-term-delay-of-frigate-freedom-lcs-construction
2023_33,2023,04,12,DE,Industrie,Virus/Rançongiciel,Un constructeur de navires spécialisé dans les yachts de luxe est victime d’une attaque par rançongiciel. ,Cybercriminalité,Disponibilité,https://www.bloomberg.com/news/articles/2023-04-11/german-superyacht-maker-lurssen-target-of-Virus/Rançongicielware-cyberattack
2023_34,2023,04,12,CA,Port,DDOS,"Le port canadien de Halifax est victime d’une attaque par déni de service distribué, provoquée par un groupe hacktiviste pro-russe.",Hacktivisme,Disponibilité,https://ici.radio-canada.ca/nouvelle/1971087/noname057-site-web-ports-canadiennes-pirates-informatiques-prorusses
2023_35,2023,04,12,CA,Port,DDOS,"Le port canadien de Quebec est victime d’une attaque par déni de service distribué, provoquée par un groupe hacktiviste pro-russe.",Hacktivisme,Disponibilité,https://ici.radio-canada.ca/nouvelle/1971087/noname057-site-web-ports-canadiennes-pirates-informatiques-prorusses
2023_36,2023,04,12,DE,Industrie,Virus/Rançongiciel,Un constructeur de navires spécialisé dans les yachts de luxe est victime d’une attaque par rançongiciel.,Cybercriminalité,Disponibilité,https://b2b-cyber-security.de/fr/cyberattaques-sur-les-chantiers-navals-nord-allemands/
2023_37,2023,04,12,CA,Port,DDOS,"L’autorité portuaire du port canadien d’Alberni est victime d’une attaque par déni de service distribué, provoquée par un groupe hacktiviste pro-russe.",Hacktivisme,Disponibilité,https://ici.radio-canada.ca/nouvelle/1971087/noname057-site-web-ports-canadiennes-pirates-informatiques-prorusses
2023_38,2023,04,13,CA,Port,DDOS,"Le port quebecois de saguenay est victime d’une attaque par déni de service distribué, provoquée par un groupe hacktiviste pro-russe.",Hacktivisme,Disponibilité,https://ici.radio-canada.ca/nouvelle/1971481/securite-internet-hacker-attaque-site-internet-port-saguenay
2023_39,2023,04,15,CA,Port,DDOS,"L’autorité portuaire du port canadien de Hamilton-Oshawa est victime d’une attaque par déni de service distribué, provoquée par un groupe hacktiviste pro-russe NoName57.",Hacktivisme,Disponibilité,https://www.globaldomainsnews.com/prorussian-pirates-new-cyberattacks-against-the-port-of-montreal
2023_40,2023,04,16,CA,Port,DDOS,"Le port canadien de Halifax est victime d’une attaque par déni de service distribué, provoquée par un groupe hacktiviste pro-russe.",Hacktivisme,Disponibilité,https://frostbrowntodd.com/maritime-industry-hit-by-yet-another-swell-of-cyberattacks/
2023_41,2023,04,17,FR,Industrie,Virus/Rançongiciel,Un bureau d’étude spécialisé dans les domaines liés à l’eau est victime d’une attaque par rançongiciel.,Cybercriminalité,Disponibilité,http://www.brl.fr/fr/incident-informatique
2023_42,2023,04,22,CA,Port,DDOS,Le port de Hamilton-Oshawa est victime d’une attaque en déni de service distribué attribuée à une mouvement hacktiviste.,Hacktivisme,Disponibilité,https://www.globaldomainsnews.com/prorussian-pirates-new-cyberattacks-against-the-port-of-montreal
2023_43,2023,04,23,CA,Administration,DDOS,Un organisme de réglementation du secteur du Transport canadien est victime d’une attaque en déni de service distribué attribuée à une mouvement hacktiviste.,Hacktivisme,Disponibilité,https://www.globaldomainsnews.com/prorussian-pirates-new-cyberattacks-against-the-port-of-montreal
2023_44,2023,04,23,CA,Port,DDOS,Le port de Montréal est victime d’une attaque en déni de service distribué attribuée à une mouvement hacktiviste.,Hacktivisme,Disponibilité,https://www.globaldomainsnews.com/prorussian-pirates-new-cyberattacks-against-the-port-of-montreal
2023_45,2023,04,26,IL,Port,DDOS,La compagnie israelienne responsable de la gestion de l’ensemble des ports israeliens est victime d’une attaque en déni de service distribué attribuée à un mouvement hacktiviste.,Hacktivisme,Disponibilité,https://www.timesofisrael.com/websites-of-israeli-port-hacked-sudanese-group-said-to-claim-responsibility/
2023_46,2023,04,26,IL,Port,DDOS,Un port israelien est victime d’une attaque en déni de service distribué attribuée à un mouvement hacktiviste.,Hacktivisme,Disponibilité,https://www.timesofisrael.com/websites-of-israeli-port-hacked-sudanese-group-said-to-claim-responsibility/
2023_47,2023,06,10,NL,Port,DDOS,"Trois ports néerlandais victimes d'une attaque en déni de service distribuée attribuée à un mouvement hacktiviste.",Hacktivism,Availability,https://www.dutchnews.nl/2023/06/russian-hackers-block-websites-in-retaliation-for-leopard-tanks/
2023_48,2023,06,20,NL,Port,DDOS,"Trois ports néerlandais et belges d'une entreprise néerlandaise victimes d'une attaque en déni de service distribuée attribuée à un mouvement hacktiviste.",Hacktivism,Availability,https://nltimes.nl/2023/06/20/zeeland-port-website-hit-ddos-attack-possibly-russian-hackers
